{
  "uuid": "a2943295-6ae3-42a0-96c9-c29738bf25fa",
  "shortName": "TilesApp",
  "longName": "TilesApp",
  "companyName": "Konstantin Vorobyev",
  "versionCode": 1,
  "versionLabel": "1.29",
  "watchapp": {
    "watchface": false
  },
  "appKeys": {
  },
  "resources": {
    "media": [{
		"menuIcon": true,
		"type": "png",
		"name": "IMAGE_MENU_ICON",
		"file": "ptiles_pebble_icon.png"
	}]
  }
}
